{
  "prepare_queue": {
    "installed": [],
    "uninstalled": []
  },
  "config_munge": {
    "files": {}
  },
  "installed_plugins": {
    "cordova-fabric-plugin": {
      "FABRIC_API_KEY": "1937ed5d81f55ab55be28a97f2c9e28d697b0aa1",
      "FABRIC_API_SECRET": "90b64e75792065e0724a59925d99de5bb67b5de203f97bc88f01a10081c1f5a0",
      "PACKAGE_NAME": "br.org.ons.contatos"
    },
    "cordova-plugin-device": {
      "PACKAGE_NAME": "br.org.ons.contatos"
    },
    "cordova-plugin-fingerprint-aio": {
      "PACKAGE_NAME": "br.org.ons.contatos"
    },
    "cordova-plugin-firebase": {
      "PACKAGE_NAME": "br.org.ons.contatos"
    },
    "cordova-plugin-ionic-keyboard": {
      "PACKAGE_NAME": "br.org.ons.contatos"
    },
    "cordova-plugin-ionic-webview": {
      "ANDROID_SUPPORT_ANNOTATIONS_VERSION": "27.+",
      "PACKAGE_NAME": "br.org.ons.contatos"
    },
    "cordova-plugin-network-information": {
      "PACKAGE_NAME": "br.org.ons.contatos"
    },
    "cordova-plugin-screen-orientation": {
      "PACKAGE_NAME": "br.org.ons.contatos"
    },
    "cordova-plugin-splashscreen": {
      "PACKAGE_NAME": "br.org.ons.contatos"
    },
    "cordova-plugin-statusbar": {
      "PACKAGE_NAME": "br.org.ons.contatos"
    },
    "cordova-plugin-whitelist": {
      "PACKAGE_NAME": "br.org.ons.contatos"
    },
    "cordova-plugin-app-version": {
      "PACKAGE_NAME": "br.org.ons.contatos"
    }
  },
  "dependent_plugins": {
    "cordova-plugin-add-swift-support": {
      "PACKAGE_NAME": "br.org.ons.contatos"
    },
    "es6-promise-plugin": {
      "PACKAGE_NAME": "br.org.ons.contatos"
    }
  }
}